{
  "schemaVersion": 1,
  "id": "ulib",
  "version": "{{project.version_string}}",
  "name": "uLib",
  "icon": "assets/ulib/icon.png",
  "authors": [
    "fluse1367"
  ],
  "contact": {
    "sources": "https://gitlab.com/fluse1367/ulib/",
    "issues": "https://gitlab.com/fluse1367/ulib/-/issues"
  },
  "license": "GPLv3",
  "environment": "*",
  "entrypoints": {
    "preLaunch": [
      "cc.fluse.ulib.loader.minecraft.ModFabric"
    ]
  },
  "depends": {
    "fabricloader": "*",
    "java": ">=17"
  },
  "custom": {
    "modmenu": {
      "badges": [
        "library"
      ]
    }
  }
}
